Exploratory Analysis
…
The majority of those that have diabetes have High Blood Pressure

The majority of those that have diabetes have High Cholesterol

At surface level, Sex seems to be of equal sample proportions for those with and without diabetes

data %>%
  group_by(Age,Diabetes_binary) %>%
  summarize(count = n())

`summarise()` has grouped output by 'Age'. You can override using the `.groups`
argument.

# A tibble: 26 × 3
# Groups:   Age [13]
   Age   Diabetes_binary count
   <fct> <fct>           <int>
 1 18-24 Not Diabetic     5622
 2 18-24 Diabetic           78
 3 25-29 Not Diabetic     7458
 4 25-29 Diabetic          140
 5 30-34 Not Diabetic    10809
 6 30-34 Diabetic          314
 7 35-39 Not Diabetic    13197
 8 35-39 Diabetic          626
 9 40-44 Not Diabetic    15106
10 40-44 Diabetic         1051
# ℹ 16 more rows
…
